%YAML 1.1
%TAG !u! tag:unity3d.com,2011:
--- !u!1045 &1
EditorBuildSettings:
  m_ObjectHideFlags: 0
  serializedVersion: 2
  m_Scenes:
  - enabled: 1
    path: Assets/Scenes/LoginScene.unity
    guid: 9fc0d4010bbf28b4594072e72b8655ab
  - enabled: 1
    path: Assets/Scenes/HomeScene.unity
    guid: fdee9f4c42223244ebb8566d255c496b
  - enabled: 1
    path: Assets/Scenes/TestScene.unity
    guid: 0d43398e5fc7b5a4fa8d331cecc207c7
  m_configObjects:
    Unity.XR.Oculus.Settings: {fileID: 11400000, guid: d1b9459aa3f3e264b84d83711290a311, type: 2}
    Unity.XR.WindowsMR.Settings: {fileID: 11400000, guid: b8d5a25a66ca56c45b1752a6e4469b74, type: 2}
    com.unity.xr.management.loader_settings: {fileID: 11400000, guid: a11eb13da77245f4eba9f55f5fe8eb6e, type: 2}
